<?xml version="1.0" encoding="utf-8"?>
  <svg width='100px' height='100px' xmlns="http://www.w3.org/2000/svg" viewBox="0 0 100 100" preserveAspectRatio="xMidYMid" class="uil-squares">
    <rect x="0" y="0" width="100" height="100" fill="none" class="bk"></rect>
    <!--1-->
    <rect x="15" y="15" width="20" height="4" fill="#F2F3F3" class="sq">
      <animate attributeName="fill" from="#F2F3F3" to="#F2F2EA" repeatCount="indefinite" dur="1s" begin="0.125s" values="#F2F2EA;#F2F2EA;#F2F3F3;#F2F3F3" keyTimes="0;0.1;0.2;1"></animate>
    </rect>
    <!--1-->
    <!--2-->
    <rect x="40" y="15" width="20" height="4" fill="#F2F3F3" class="sq">
      <animate attributeName="fill" from="#F2F3F3" to="#F2F2EA" repeatCount="indefinite" dur="1s" begin="0.125s" values="#F2F2EA;#F2F2EA;#F2F3F3;#F2F3F3" keyTimes="0;0.1;0.2;1"></animate>
    </rect>
    <!--2-->
    <!--3-->
    <rect x="65" y="15" width="20" height="4" fill="#F2F3F3" class="sq">
      <animate attributeName="fill" from="#F2F3F3" to="#F2F2EA" repeatCount="indefinite" dur="1s" begin="0.25s" values="#F2F2EA;#F2F2EA;#F2F3F3;#F2F3F3" keyTimes="0;0.1;0.2;1"></animate>
    </rect>
    <!--3-->
    <!--4-->
    <rect x="83" y="15" width="4" height="20" fill="#F2F3F3" class="sq">
      <animate attributeName="fill" from="#F2F3F3" to="#F2F2EA" repeatCount="indefinite" dur="1s" begin="0.25s" values="#F2F2EA;#F2F2EA;#F2F3F3;#F2F3F3" keyTimes="0;0.1;0.2;1"></animate>
    </rect>
    <!--4-->
    <!--5-->
    <rect x="83" y="40" width="4" height="20" fill="#F2F3F3" class="sq">
      <animate attributeName="fill" from="#F2F3F3" to="#F2F2EA" repeatCount="indefinite" dur="1s" begin="0.375s" values="#F2F2EA;#F2F2EA;#F2F3F3;#F2F3F3" keyTimes="0;0.1;0.2;1"></animate>
    </rect>
    <!--5-->
    <!--6-->
    <rect x="83" y="65" width="4" height="20" fill="#F2F3F3" class="sq">
      <animate attributeName="fill" from="#F2F3F3" to="#F2F2EA" repeatCount="indefinite" dur="1s" begin="0.5s" values="#F2F2EA;#F2F2EA;#F2F3F3;#F2F3F3" keyTimes="0;0.1;0.2;1"></animate>
    </rect>
    <!--6-->
    <!--7-->
    <rect x="65" y="81" width="20" height="4" fill="#F2F3F3" class="sq">
      <animate attributeName="fill" from="#F2F3F3" to="#F2F2EA" repeatCount="indefinite" dur="1s" begin="0.5s" values="#F2F2EA;#F2F2EA;#F2F3F3;#F2F3F3" keyTimes="0;0.1;0.2;1"></animate>
    </rect>
    <!--7-->
    <!--8-->
    <rect x="40" y="81" width="20" height="4" fill="#F2F3F3" class="sq">
      <animate attributeName="fill" from="#F2F3F3" to="#F2F2EA" repeatCount="indefinite" dur="1s" begin="0.625s" values="#F2F2EA;#F2F2EA;#F2F3F3;#F2F3F3" keyTimes="0;0.1;0.2;1"></animate>
    </rect>
    <!--8-->
    <!--9-->
    <rect x="15" y="81" width="20" height="4" fill="#F2F3F3" class="sq">
      <animate attributeName="fill" from="#F2F3F3" to="#F2F2EA" repeatCount="indefinite" dur="1s" begin="0.625s" values="#F2F2EA;#F2F2EA;#F2F3F3;#F2F3F3" keyTimes="0;0.1;0.2;1"></animate>
    </rect>
    <!--9-->
    <!--10-->
    <rect x="15" y="65" width="4" height="20" fill="#F2F3F3" class="sq">
      <animate attributeName="fill" from="#F2F3F3" to="#F2F2EA" repeatCount="indefinite" dur="1s" begin="0.75s" values="#F2F2EA;#F2F2EA;#F2F3F3;#F2F3F3" keyTimes="0;0.1;0.2;1"></animate>
    </rect>
    <!--10-->
    <!--11-->
    <rect x="15" y="40" width="4" height="20" fill="#F2F3F3" class="sq">
      <animate attributeName="fill" from="#F2F3F3" to="#F2F2EA" repeatCount="indefinite" dur="1s" begin="0.875s" values="#F2F2EA;#F2F2EA;#F2F3F3;#F2F3F3" keyTimes="0;0.1;0.2;1"></animate>
    </rect>
    <!--11-->
    <!--12-->
    <rect x="15" y="15" width="4" height="20" fill="#F2F3F3" class="sq">
      <animate attributeName="fill" from="#F2F3F3" to="#F2F2EA" repeatCount="indefinite" dur="1s" begin="0s" values="#F2F2EA;#F2F2EA;#F2F3F3;#F2F3F3" keyTimes="0;0.1;0.2;1">  </animate>
    </rect>
    <!--12-->
</svg>
